\select@language {italian}
\contentsline {section}{\numberline {1}Fattorizzazione LU}{2}{section.1}
\contentsline {section}{\numberline {2}Gradiente}{2}{section.2}
\contentsline {section}{\numberline {3}Iterazioni QR}{2}{section.3}
\contentsline {section}{\numberline {4}Newton}{3}{section.4}
\contentsline {section}{\numberline {5}Newton per sistemi}{3}{section.5}
